<?xml version="1.0" encoding="utf-8"?>
<!-- Generator: Adobe Illustrator 17.1.0, SVG Export Plug-In . SVG Version: 6.00 Build 0)  -->
<!DOCTYPE svg PUBLIC "-//W3C//DTD SVG 1.1//EN" "http://www.w3.org/Graphics/SVG/1.1/DTD/svg11.dtd">
<svg version="1.1" id="Layer_1" xmlns="http://www.w3.org/2000/svg" xmlns:xlink="http://www.w3.org/1999/xlink" x="0px" y="0px"
	 viewBox="0 0 500 500" enable-background="new 0 0 500 500" xml:space="preserve">
<title>chech-checked</title>
<g>
	<polygon fill="#FF9B00" points="219.6,396 56.6,233 116.7,172.9 219.6,275.8 437.4,58 497.5,118.1 	"/>
</g>
<polygon fill="#FF9B00" points="384,285.4 384,422.7 39,422.7 39,77.3 364.4,77.3 403.4,38.3 0,38.3 0,461.7 423,461.7 423,246.4 
	"/>
</svg>
